<?xml version="1.0" encoding="utf-8"?>
<!-- Generator: Adobe Illustrator 25.1.0, SVG Export Plug-In . SVG Version: 6.00 Build 0)  -->
<svg version="1.1" id="Layer_1" xmlns="http://www.w3.org/2000/svg" xmlns:xlink="http://www.w3.org/1999/xlink" x="0px" y="0px"
	 viewBox="0 0 512 286.3" style="enable-background:new 0 0 512 286.3;" xml:space="preserve">
<style type="text/css">
	.st0{fill:#D5D6DF;}
</style>
<g>
	<g>
		<path class="st0" d="M457.1,97.9h-120l-41.9-62.6C280.5,13.2,255.8,0,229.2,0H110C49.3,0,0,49.3,0,110v103.1
			c0,9.5,7.7,17.3,17.3,17.3h33.2c0.6,30.9,25.9,55.9,56.9,55.9s56.3-25,56.9-55.9h198.6c0.6,30.9,25.9,55.9,56.9,55.9
			s56.3-25,56.9-55.9h18.1c9.5,0,17.3-7.7,17.3-17.3v-60.3C512,122.6,487.4,97.9,457.1,97.9z M222.7,34.5h6.4c15.1,0,29,7.5,37.4,20
			l29,43.4h-72.9V34.5z M110,34.5h78.2v63.4H35.5C41.3,62,72.5,34.5,110,34.5z M107.4,251.7C95,251.7,85,241.7,85,229.3
			s10.1-22.4,22.4-22.4s22.4,10.1,22.4,22.4S119.8,251.7,107.4,251.7z M419.8,251.7c-12.4,0-22.4-10.1-22.4-22.4
			c0-12.4,10.1-22.4,22.4-22.4s22.4,10.1,22.4,22.4S432.1,251.7,419.8,251.7z M477.5,195.8h-11.7c-10.4-14.2-27.1-23.4-46-23.4
			s-35.6,9.2-46,23.4H153.4c-10.4-14.2-27.1-23.4-46-23.4s-35.6,9.2-46,23.4H34.5v-63.4h293.4h129.2c11.2,0,20.4,9.1,20.4,20.4
			L477.5,195.8L477.5,195.8z"/>
	</g>
</g>
<g>
	<g>
		<path class="st0" d="M272,145.9h-22.4c-9.5,0-17.3,7.7-17.3,17.3s7.7,17.3,17.3,17.3H272c9.5,0,17.3-7.7,17.3-17.3
			S281.6,145.9,272,145.9z"/>
	</g>
</g>
</svg>
