<?xml version="1.0" encoding="utf-8"?>
<!-- Generator: Adobe Illustrator 25.1.0, SVG Export Plug-In . SVG Version: 6.00 Build 0)  -->
<svg version="1.1" id="Слой_1" xmlns="http://www.w3.org/2000/svg" xmlns:xlink="http://www.w3.org/1999/xlink" x="0px" y="0px"
	 viewBox="0 0 387 294" style="enable-background:new 0 0 387 294;" xml:space="preserve">
<style type="text/css">
	.st0{fill:#D5D6DF;}
</style>
<path class="st0" d="M363.2,174.5l16.7-100.2L326.8,0l-26,18.6l34.1,47.7L261.7,53l-41.2,41.2h-71.3L51.5,69.8L7.8,58.9L0,89.9
	l35.4,8.8v69.8c-19.2,12-32,33.3-32,57.5c0,37.5,30.5,67.9,67.9,67.9c27.5,0,51.2-16.4,61.8-40h124.1c10.7,23.5,34.4,40,61.8,40
	c37.5,0,67.9-30.5,67.9-67.9C387,205.5,377.7,187,363.2,174.5z M71.3,262c-19.8,0-36-16.1-36-36s16.1-36,36-36s36,16.1,36,36
	S91.2,262,71.3,262z M251.3,222.1H139.1c-2.1-35.6-31.6-63.9-67.7-63.9c-1.4,0-2.7,0.1-4,0.2v-51.7l69.5,17.4l33,56.6l88.6,14.9
	C254.4,203.6,251.9,212.6,251.3,222.1z M189.9,151.6l-14.8-25.4h58.7l38.7-38.7l70.6,12.8l-9.9,59.4c-4.6-1-9.3-1.5-14.2-1.5
	c-12.5,0-24.2,3.5-34.3,9.4L189.9,151.6z M319.1,262c-19.8,0-36-16.1-36-36s16.1-36,36-36c19.8,0,36,16.1,36,36S338.9,262,319.1,262
	z"/>
</svg>
