<?xml version="1.0" encoding="utf-8"?>
<!-- Generator: Adobe Illustrator 24.0.2, SVG Export Plug-In . SVG Version: 6.00 Build 0)  -->
<svg version="1.1" id="Capa_1" xmlns="http://www.w3.org/2000/svg" xmlns:xlink="http://www.w3.org/1999/xlink" x="0px" y="0px"
	 viewBox="0 0 519 519" style="enable-background:new 0 0 519 519;" xml:space="preserve">
<style type="text/css">
	.st0{fill:#FE5607;stroke:#FE5607;stroke-width:7;stroke-miterlimit:10;}
</style>
<g>
	<path class="st0" d="M47.2,513c5.8,3.6-22,2.2,408.3,2.2c33.1,0,60-26.9,60-60v-45c0-8.3-6.7-15-15-15h-35v-329
		c0-34.6-28.1-62.7-62.7-62.7H18.5c-8.3,0-15,6.7-15,15v436.8c0,16,6.2,31.1,17.6,42.4C28.4,505,37.4,510.2,47.2,513L47.2,513z
		 M485.5,455.3c0,16.5-13.5,30-30,30H115.4c5.1-8.8,8.1-19.1,8.1-30v-0.8v-29.2h362V455.3z M33.5,33.5h369.3
		c18,0,32.7,14.7,32.7,32.7v329.1h-327c-8.3,0-15,6.7-15,15v44.2c0,27.2-32.3,40.9-51.2,22c-5.7-5.7-8.8-13.2-8.8-21.2V33.5z"/>
	<path class="st0" d="M112.2,124.4h244.7c8.3,0,15-6.7,15-15s-6.7-15-15-15H112.2c-8.3,0-15,6.7-15,15S103.9,124.4,112.2,124.4z"/>
	<path class="st0" d="M112.2,194.4h244.7c8.3,0,15-6.7,15-15s-6.7-15-15-15H112.2c-8.3,0-15,6.7-15,15S103.9,194.4,112.2,194.4z"/>
	<path class="st0" d="M112.2,264.4h244.7c8.3,0,15-6.7,15-15c0-8.3-6.7-15-15-15H112.2c-8.3,0-15,6.7-15,15
		C97.2,257.7,103.9,264.4,112.2,264.4z"/>
	<path class="st0" d="M112.2,334.3h244.7c8.3,0,15-6.7,15-15s-6.7-15-15-15H112.2c-8.3,0-15,6.7-15,15S103.9,334.3,112.2,334.3z"/>
</g>
</svg>
